ENSC252/ENSC252/Lab4/Part2/simulation/qsim/ripple_carry.msim.vcd
$comment
	File created using the following command:
		vcd file ripple_carry.msim.vcd -direction
$end
$date
	Fri Oct 05 14:39:47 2018
$end
$version
	ModelSim Version 10.3d
$end
$timescale
	1ps
$end

$scope module ripple_carry_vlg_vec_tst $end
$var reg 1 ! Cin $end
$var reg 1 " X0 $end
$var reg 1 # X1 $end
$var reg 1 $ X2 $end
$var reg 1 % X3 $end
$var reg 1 & Y0 $end
$var reg 1 ' Y1 $end
$var reg 1 ( Y2 $end
$var reg 1 ) Y3 $end
$var wire 1 * Cout $end
$var wire 1 + S0 $end
$var wire 1 , S1 $end
$var wire 1 - S2 $end
$var wire 1 . S3 $end
$var wire 1 / sampler $end

$scope module i1 $end
$var wire 1 0 gnd $end
$var wire 1 1 vcc $end
$var wire 1 2 unknown $end
$var tri1 1 3 devclrn $end
$var tri1 1 4 devpor $end
$var tri1 1 5 devoe $end
$var wire 1 6 S0~output_o $end
$var wire 1 7 S1~output_o $end
$var wire 1 8 S2~output_o $end
$var wire 1 9 S3~output_o $end
$var wire 1 : Cout~output_o $end
$var wire 1 ; Cin~input_o $end
$var wire 1 < X0~input_o $end
$var wire 1 = Y0~input_o $end
$var wire 1 > obj1|Sum~0_combout $end
$var wire 1 ? Y1~input_o $end
$var wire 1 @ X1~input_o $end
$var wire 1 A obj1|Carry~0_combout $end
$var wire 1 B obj2|Sum~combout $end
$var wire 1 C X2~input_o $end
$var wire 1 D Y2~input_o $end
$var wire 1 E obj2|Carry~0_combout $end
$var wire 1 F obj3|Sum~combout $end
$var wire 1 G X3~input_o $end
$var wire 1 H Y3~input_o $end
$var wire 1 I obj3|Carry~0_combout $end
$var wire 1 J obj4|Sum~combout $end
$var wire 1 K obj4|Carry~0_combout $end
$upscope $end
$upscope $end
$enddefinitions $end
#0
$dumpvars
1!
1"
1#
1$
1%
0&
0'
0(
0)
x*
x+
x,
x-
x.
x/
00
11
x2
13
14
15
x6
x7
x8
x9
x:
1;
1<
0=
x>
0?
1@
xA
xB
1C
0D
xE
xF
1G
0H
xI
xJ
xK
$end
#3449
0>
#3568
1A
#3921
0B
#3936
1E
#4290
0F
#4304
1I
#4656
0J
#4674
1K
#6997
06
0+
#7431
07
0,
#8195
09
0.
#8259
1:
1*
#9237
08
0-
